i2c.vcd
$date
	Sun Mar 29 20:40:00 2026
$end
$version
	ModelSim Version 10.5b
$end
$timescale
	1ps
$end

$scope module tb_i2c_master $end
$var reg 1 ! wb_clk_i $end
$var reg 1 " wb_rst_i $end
$var reg 1 # arst_i $end
$var reg 3 $ wb_adr_i [2:0] $end
$var reg 8 % wb_dat_i [7:0] $end
$var wire 1 & wb_dat_o [7] $end
$var wire 1 ' wb_dat_o [6] $end
$var wire 1 ( wb_dat_o [5] $end
$var wire 1 ) wb_dat_o [4] $end
$var wire 1 * wb_dat_o [3] $end
$var wire 1 + wb_dat_o [2] $end
$var wire 1 , wb_dat_o [1] $end
$var wire 1 - wb_dat_o [0] $end
$var reg 1 . wb_we_i $end
$var reg 1 / wb_stb_i $end
$var reg 1 0 wb_cyc_i $end
$var wire 1 1 wb_ack_o $end
$var wire 1 2 wb_inta_o $end
$var wire 1 3 scl_pad_o $end
$var wire 1 4 scl_padoen_o $end
$var wire 1 5 sda_pad_o $end
$var wire 1 6 sda_padoen_o $end
$var tri1 1 7 scl_wire $end
$var tri1 1 8 sda_wire $end
$var reg 1 9 sda_slave_drive $end
$var wire 1 : scl_pad_i $end
$var wire 1 ; sda_pad_i $end
$var integer 32 < bit_cnt $end
$var reg 8 = rd_status [7:0] $end

$scope task wb_write $end
$var reg 3 > addr [2:0] $end
$var reg 8 ? data [7:0] $end
$var integer 32 @ timeout $end
$upscope $end

$scope task wb_read $end
$var reg 3 A addr [2:0] $end
$var reg 8 B rdata [7:0] $end
$var integer 32 C timeout $end
$upscope $end

$scope task wait_tip_clear $end
$var integer 32 D timeout $end
$var reg 8 E status [7:0] $end
$upscope $end

$scope module dut $end
$var parameter 1 F ARST_LVL $end
$var wire 1 G wb_clk_i $end
$var wire 1 H wb_rst_i $end
$var wire 1 I arst_i $end
$var wire 1 J wb_adr_i [2] $end
$var wire 1 K wb_adr_i [1] $end
$var wire 1 L wb_adr_i [0] $end
$var wire 1 M wb_dat_i [7] $end
$var wire 1 N wb_dat_i [6] $end
$var wire 1 O wb_dat_i [5] $end
$var wire 1 P wb_dat_i [4] $end
$var wire 1 Q wb_dat_i [3] $end
$var wire 1 R wb_dat_i [2] $end
$var wire 1 S wb_dat_i [1] $end
$var wire 1 T wb_dat_i [0] $end
$var reg 8 U wb_dat_o [7:0] $end
$var wire 1 V wb_we_i $end
$var wire 1 W wb_stb_i $end
$var wire 1 X wb_cyc_i $end
$var reg 1 Y wb_ack_o $end
$var reg 1 Z wb_inta_o $end
$var wire 1 : scl_pad_i $end
$var wire 1 3 scl_pad_o $end
$var wire 1 4 scl_padoen_o $end
$var wire 1 ; sda_pad_i $end
$var wire 1 5 sda_pad_o $end
$var wire 1 6 sda_padoen_o $end
$var reg 16 [ prer [15:0] $end
$var reg 8 \ ctr [7:0] $end
$var reg 8 ] txr [7:0] $end
$var wire 1 ^ rxr [7] $end
$var wire 1 _ rxr [6] $end
$var wire 1 ` rxr [5] $end
$var wire 1 a rxr [4] $end
$var wire 1 b rxr [3] $end
$var wire 1 c rxr [2] $end
$var wire 1 d rxr [1] $end
$var wire 1 e rxr [0] $end
$var reg 8 f cr [7:0] $end
$var wire 1 g sr [7] $end
$var wire 1 h sr [6] $end
$var wire 1 i sr [5] $end
$var wire 1 j sr [4] $end
$var wire 1 k sr [3] $end
$var wire 1 l sr [2] $end
$var wire 1 m sr [1] $end
$var wire 1 n sr [0] $end
$var wire 1 o done $end
$var wire 1 p core_en $end
$var wire 1 q ien $end
$var wire 1 r irxack $end
$var reg 1 s rxack $end
$var reg 1 t tip $end
$var reg 1 u irq_flag $end
$var wire 1 v i2c_busy $end
$var wire 1 w i2c_al $end
$var reg 1 x al $end
$var wire 1 y rst_i $end
$var wire 1 z wb_wacc $end
$var wire 1 { sta $end
$var wire 1 | sto $end
$var wire 1 } rd $end
$var wire 1 ~ wr $end
$var wire 1 !! ack $end
$var wire 1 "! iack $end

$scope module byte_controller $end
$var parameter 5 #! ST_IDLE $end
$var parameter 5 $! ST_START $end
$var parameter 5 %! ST_READ $end
$var parameter 5 &! ST_WRITE $end
$var parameter 5 '! ST_ACK $end
$var parameter 5 (! ST_STOP $end
$var wire 1 G clk $end
$var wire 1 H rst $end
$var wire 1 y nReset $end
$var wire 1 p ena $end
$var wire 1 )! clk_cnt [15] $end
$var wire 1 *! clk_cnt [14] $end
$var wire 1 +! clk_cnt [13] $end
$var wire 1 ,! clk_cnt [12] $end
$var wire 1 -! clk_cnt [11] $end
$var wire 1 .! clk_cnt [10] $end
$var wire 1 /! clk_cnt [9] $end
$var wire 1 0! clk_cnt [8] $end
$var wire 1 1! clk_cnt [7] $end
$var wire 1 2! clk_cnt [6] $end
$var wire 1 3! clk_cnt [5] $end
$var wire 1 4! clk_cnt [4] $end
$var wire 1 5! clk_cnt [3] $end
$var wire 1 6! clk_cnt [2] $end
$var wire 1 7! clk_cnt [1] $end
$var wire 1 8! clk_cnt [0] $end
$var wire 1 { start $end
$var wire 1 | stop $end
$var wire 1 } read $end
$var wire 1 ~ write $end
$var wire 1 !! ack_in $end
$var wire 1 9! din [7] $end
$var wire 1 :! din [6] $end
$var wire 1 ;! din [5] $end
$var wire 1 <! din [4] $end
$var wire 1 =! din [3] $end
$var wire 1 >! din [2] $end
$var wire 1 ?! din [1] $end
$var wire 1 @! din [0] $end
$var reg 1 A! cmd_ack $end
$var reg 1 B! ack_out $end
$var wire 1 v i2c_busy $end
$var wire 1 w i2c_al $end
$var wire 1 ^ dout [7] $end
$var wire 1 _ dout [6] $end
$var wire 1 ` dout [5] $end
$var wire 1 a dout [4] $end
$var wire 1 b dout [3] $end
$var wire 1 c dout [2] $end
$var wire 1 d dout [1] $end
$var wire 1 e dout [0] $end
$var wire 1 : scl_i $end
$var wire 1 3 scl_o $end
$var wire 1 4 scl_oen $end
$var wire 1 ; sda_i $end
$var wire 1 5 sda_o $end
$var wire 1 6 sda_oen $end
$var reg 4 C! core_cmd [3:0] $end
$var reg 1 D! core_txd $end
$var wire 1 E! core_ack $end
$var wire 1 F! core_rxd $end
$var reg 8 G! sr [7:0] $end
$var reg 1 H! shift $end
$var reg 1 I! ld $end
$var wire 1 J! go $end
$var reg 3 K! dcnt [2:0] $end
$var wire 1 L! cnt_done $end
$var reg 5 M! c_state [4:0] $end

$scope module bit_controller $end
$var parameter 18 N! idle $end
$var parameter 18 O! start_a $end
$var parameter 18 P! start_b $end
$var parameter 18 Q! start_c $end
$var parameter 18 R! start_d $end
$var parameter 18 S! start_e $end
$var parameter 18 T! stop_a $end
$var parameter 18 U! stop_b $end
$var parameter 18 V! stop_c $end
$var parameter 18 W! stop_d $end
$var parameter 18 X! rd_a $end
$var parameter 18 Y! rd_b $end
$var parameter 18 Z! rd_c $end
$var parameter 18 [! rd_d $end
$var parameter 18 \! wr_a $end
$var parameter 18 ]! wr_b $end
$var parameter 18 ^! wr_c $end
$var parameter 18 _! wr_d $end
$var wire 1 G clk $end
$var wire 1 H rst $end
$var wire 1 y nReset $end
$var wire 1 p ena $end
$var wire 1 )! clk_cnt [15] $end
$var wire 1 *! clk_cnt [14] $end
$var wire 1 +! clk_cnt [13] $end
$var wire 1 ,! clk_cnt [12] $end
$var wire 1 -! clk_cnt [11] $end
$var wire 1 .! clk_cnt [10] $end
$var wire 1 /! clk_cnt [9] $end
$var wire 1 0! clk_cnt [8] $end
$var wire 1 1! clk_cnt [7] $end
$var wire 1 2! clk_cnt [6] $end
$var wire 1 3! clk_cnt [5] $end
$var wire 1 4! clk_cnt [4] $end
$var wire 1 5! clk_cnt [3] $end
$var wire 1 6! clk_cnt [2] $end
$var wire 1 7! clk_cnt [1] $end
$var wire 1 8! clk_cnt [0] $end
$var wire 1 `! cmd [3] $end
$var wire 1 a! cmd [2] $end
$var wire 1 b! cmd [1] $end
$var wire 1 c! cmd [0] $end
$var reg 1 d! cmd_ack $end
$var reg 1 e! busy $end
$var reg 1 f! al $end
$var wire 1 g! din $end
$var reg 1 h! dout $end
$var wire 1 : scl_i $end
$var wire 1 3 scl_o $end
$var reg 1 i! scl_oen $end
$var wire 1 ; sda_i $end
$var wire 1 5 sda_o $end
$var reg 1 j! sda_oen $end
$var reg 2 k! cSCL [1:0] $end
$var reg 2 l! cSDA [1:0] $end
$var reg 3 m! fSCL [2:0] $end
$var reg 3 n! fSDA [2:0] $end
$var reg 1 o! sSCL $end
$var reg 1 p! sSDA $end
$var reg 1 q! dSCL $end
$var reg 1 r! dSDA $end
$var reg 1 s! dscl_oen $end
$var reg 1 t! sda_chk $end
$var reg 1 u! clk_en $end
$var reg 1 v! slave_wait $end
$var reg 16 w! cnt [15:0] $end
$var reg 14 x! filter_cnt [13:0] $end
$var reg 18 y! c_state [17:0] $end
$var wire 1 z! scl_sync $end
$var reg 1 {! sta_condition $end
$var reg 1 |! sto_condition $end
$var reg 1 }! cmd_stop $end
$upscope $end
$upscope $end
$upscope $end
$upscope $end
$enddefinitions $end
#0
$dumpvars
0!
1"
1#
b0 $
b0 %
0.
0/
00
09
bx U
xY
xZ
bx [
bx \
bx ]
bx f
xs
xt
xu
xx
xA!
xB!
bx C!
xD!
bx G!
xH!
xI!
bx K!
xd!
xe!
xf!
xh!
xi!
xj!
bx k!
bx l!
bx m!
bx n!
xo!
xp!
xq!
xr!
xs!
xt!
xu!
xv!
bx w!
bx x!
bx y!
x{!
x|!
x}!
bx M!
bx >
bx ?
bx A
bx B
bx E
bx =
b0 F
b0 #!
b1 $!
b10 %!
b100 &!
b1000 '!
b10000 (!
b0 N!
b1 O!
b10 P!
b100 Q!
b1000 R!
b10000 S!
b100000 T!
b1000000 U!
b10000000 V!
b100000000 W!
b1000000000 X!
b10000000000 Y!
b100000000000 Z!
b1000000000000 [!
b10000000000000 \!
b100000000000000 ]!
b1000000000000000 ^!
b10000000000000000 _!
bx @
bx C
bx D
b0 <
x-
x,
x+
x*
x)
x(
x'
x&
x1
x2
03
x4
05
x6
x7
x8
x:
x;
xe
xd
xc
xb
xa
x`
x_
x^
xn
xm
0l
0k
0j
xi
xh
xg
xo
xp
xq
xr
xv
xw
1y
0z
x{
x|
x}
x~
x!!
x"!
xE!
xF!
xJ!
xL!
xz!
0X
0W
0V
0T
0S
0R
0Q
0P
0O
0N
0M
0L
0K
0J
1I
1H
0G
x@!
x?!
x>!
x=!
x<!
x;!
x:!
x9!
x8!
x7!
x6!
x5!
x4!
x3!
x2!
x1!
x0!
x/!
x.!
x-!
x,!
x+!
x*!
x)!
xg!
xc!
xb!
xa!
x`!
$end
#10000
1!
1G
b0 x!
b111 m!
b111 n!
#11000
0Y
b1111111111111111 [
b0 \
b0 ]
b0 f
1u!
b0 k!
b0 l!
1o!
1p!
1q!
1r!
0{!
0|!
0e!
0}!
0f!
b0 y!
0d!
1i!
1j!
0t!
b0 G!
b0 K!
b0 C!
0D!
0H!
0I!
0A!
b0 M!
0B!
0x
0s
0t
0u
0Z
0z!
0{
0|
0}
0~
0!!
0"!
0p
0q
0J!
0v
0w
0E!
14
16
1L!
0c!
0b!
0a!
0`!
0e
0d
0c
0b
0a
0`
0_
0^
0@!
0?!
0>!
0=!
0<!
0;!
0:!
09!
18!
17!
16!
15!
14!
13!
12!
11!
10!
1/!
1.!
1-!
1,!
1+!
1*!
1)!
0g!
0o
0r
0i
0g
0m
0n
02
0h
01
17
18
1;
1:
b1 <
#20000
0!
0G
#30000
1!
1G
0v!
#31000
b11111111 U
1s!
b1111111111111111 w!
1-
1,
1+
1*
1)
1(
1'
1&
#40000
0!
0G
#50000
1!
1G
#60000
0!
0G
#70000
1!
1G
#80000
0!
0G
#90000
1!
1G
0"
0H
#100000
0!
0G
#110000
1!
1G
b1 k!
b1 l!
b110 m!
b110 n!
#120000
0!
0G
#130000
1!
1G
b11 k!
b11 l!
b100 m!
b100 n!
#140000
0!
0G
#150000
1!
1G
b0 >
b1001 ?
b1 m!
b1 n!
#151000
0o!
0p!
1z!
#160000
0!
0G
b1001 %
1.
1/
10
b0 @
1T
1Q
1V
1W
1X
#170000
1!
1G
b11 m!
b11 n!
#171000
1Y
0q!
0r!
0z!
1z
11
#180000
0!
0G
#190000
1!
1G
b1 @
b111 m!
b111 n!
#191000
0Y
b1111111100001001 [
1o!
1p!
0z
07!
06!
04!
03!
02!
01!
01
#200000
0!
0G
0/
00
0.
b1 >
b0 ?
0W
0X
0V
#210000
1!
1G
#211000
b1001 U
b1111111100001001 w!
1q!
1r!
1|!
1h!
0,
0+
0)
0(
0'
0&
1F!
#220000
0!
0G
b1 $
b0 %
1.
1/
10
b0 @
0T
0Q
1L
1V
1W
1X
#230000
1!
1G
#231000
1Y
b11111111 U
0|!
1z
1,
1+
1)
1(
1'
1&
11
#240000
0!
0G
#250000
1!
1G
b1 @
#251000
0Y
b1001 [
0z
00!
0/!
0.!
0-!
0,!
0+!
0*!
0)!
01
#260000
0!
0G
0/
00
0.
b0 A
0W
0X
0V
#270000
1!
1G
#271000
b0 U
b1001 w!
0-
0,
0+
0*
0)
0(
0'
0&
#280000
0!
0G
b0 $
1/
10
b0 C
0L
1W
1X
#290000
1!
1G
#291000
1Y
b1001 U
1-
1*
11
#300000
0!
0G
#310000
1!
1G
b1 C
b1001 B
#311000
0Y
01
#320000
0!
0G
0/
00
b1001 =
b10 >
b10000000 ?
0W
0X
#330000
1!
1G
#340000
0!
0G
b10 $
b10000000 %
1.
1/
10
b0 @
1M
1K
1V
1W
1X
#350000
1!
1G
#351000
1Y
b0 U
1z
0-
0*
11
#360000
0!
0G
#370000
1!
1G
b1 @
#371000
0Y
b10000000 \
1p
0z
01
#380000
0!
0G
0/
00
0.
b11 >
b10100000 ?
0W
0X
0V
#390000
1!
1G
b10 x!
#391000
b10000000 U
b1000 w!
0u!
1&
#400000
0!
0G
b11 $
b10100000 %
1.
1/
10
b0 @
1O
1L
1V
1W
1X
#410000
1!
1G
b1 x!
#411000
1Y
b0 U
b111 w!
1z
0&
11
#420000
0!
0G
#430000
1!
1G
b1 @
b0 x!
#431000
0Y
b10100000 ]
b110 w!
0z
1;!
19!
01
#440000
0!
0G
0/
00
0.
b100 >
b10010000 ?
0W
0X
0V
#450000
1!
1G
b10 x!
#451000
b101 w!
#460000
0!
0G
b100 $
b10010000 %
1.
1/
10
b0 @
1P
0O
0L
0K
1J
1V
1W
1X
#470000
1!
1G
b1 x!
#471000
1Y
b100 w!
1z
11
#480000
0!
0G
#490000
1!
1G
b1 @
b10010000 f
b0 x!
1{
1~
1J!
#491000
0Y
b11 w!
0z
01
#500000
0!
0G
0/
00
0.
b0 D
b11111111 E
b100 A
0W
0X
0V
#510000
1!
1G
b10 x!
1t
1m
#511000
b10 w!
b1 M!
b1 C!
1I!
1c!
#520000
0!
0G
1/
10
b0 C
1W
1X
#530000
1!
1G
b1 x!
#531000
1Y
b10 U
b1 w!
b10100000 G!
b111 K!
0I!
1`
1^
1,
0L!
11
#540000
0!
0G
#550000
1!
1G
b1 C
b10 B
b0 x!
#551000
0Y
b0 w!
1D!
1g!
01
#560000
0!
0G
0/
00
b10 E
b1 D
0W
0X
#570000
1!
1G
b10 x!
#571000
b1001 w!
1u!
#580000
0!
0G
1/
10
b0 C
1W
1X
#590000
1!
1G
b1 x!
#591000
1Y
b1000 w!
0u!
b1 y!
11
#600000
0!
0G
#610000
1!
1G
b1 C
b0 x!
#611000
0Y
b111 w!
01
#620000
0!
0G
0/
00
b10 D
0W
0X
#630000
1!
1G
b10 x!
#631000
b110 w!
#640000
0!
0G
1/
10
b0 C
1W
1X
#650000
1!
1G
b1 x!
#651000
1Y
b101 w!
11
#660000
0!
0G
#670000
1!
1G
b1 C
b0 x!
#671000
0Y
b100 w!
01
#680000
0!
0G
0/
00
b11 D
0W
0X
#690000
1!
1G
b10 x!
#691000
b11 w!
#700000
0!
0G
1/
10
b0 C
1W
1X
#710000
1!
1G
b1 x!
#711000
1Y
b10 w!
11
#720000
0!
0G
#730000
1!
1G
b1 C
b0 x!
#731000
0Y
b1 w!
01
#740000
0!
0G
0/
00
b100 D
0W
0X
#750000
1!
1G
b10 x!
#751000
b0 w!
#760000
0!
0G
1/
10
b0 C
1W
1X
#770000
1!
1G
b1 x!
#771000
1Y
b1001 w!
1u!
11
#780000
0!
0G
#790000
1!
1G
b1 C
b0 x!
#791000
0Y
b1000 w!
0u!
b10 y!
01
#800000
0!
0G
0/
00
b101 D
0W
0X
#810000
1!
1G
b10 x!
#811000
b111 w!
#820000
0!
0G
1/
10
b0 C
1W
1X
#830000
1!
1G
b1 x!
#831000
1Y
b110 w!
11
#840000
0!
0G
#850000
1!
1G
b1 C
b0 x!
#851000
0Y
b101 w!
01
#860000
0!
0G
0/
00
b110 D
0W
0X
#870000
1!
1G
b10 x!
#871000
b100 w!
#880000
0!
0G
1/
10
b0 C
1W
1X
#890000
1!
1G
b1 x!
#891000
1Y
b11 w!
11
#900000
0!
0G
#910000
1!
1G
b1 C
b0 x!
#911000
0Y
b10 w!
01
#920000
0!
0G
0/
00
b111 D
0W
0X
#930000
1!
1G
b10 x!
#931000
b1 w!
#940000
0!
0G
1/
10
b0 C
1W
1X
#950000
1!
1G
b1 x!
#951000
1Y
b0 w!
11
#960000
0!
0G
#970000
1!
1G
b1 C
b0 x!
#971000
0Y
b1001 w!
1u!
01
#980000
0!
0G
0/
00
b1000 D
0W
0X
#990000
1!
1G
b10 x!
#991000
b1000 w!
0u!
b100 y!
#1000000
0!
0G
1/
10
b0 C
1W
1X
#1010000
1!
1G
b1 x!
#1011000
1Y
b111 w!
11
#1020000
0!
0G
#1030000
1!
1G
b1 C
b0 x!
#1031000
0Y
b110 w!
01
#1040000
0!
0G
0/
00
b1001 D
0W
0X
#1050000
1!
1G
b10 x!
#1051000
b101 w!
#1060000
0!
0G
1/
10
b0 C
1W
1X
#1070000
1!
1G
b1 x!
#1071000
1Y
b100 w!
11
#1080000
0!
0G
#1090000
1!
1G
b1 C
b0 x!
#1091000
0Y
b11 w!
01
#1100000
0!
0G
0/
00
b1010 D
0W
0X
#1110000
1!
1G
b10 x!
#1111000
b10 w!
#1120000
0!
0G
1/
10
b0 C
1W
1X
#1130000
1!
1G
b1 x!
#1131000
1Y
b1 w!
11
#1140000
0!
0G
#1150000
1!
1G
b1 C
b0 x!
#1151000
0Y
b0 w!
01
#1160000
0!
0G
0/
00
b1011 D
0W
0X
#1170000
1!
1G
b10 x!
#1171000
b1001 w!
1u!
#1180000
0!
0G
1/
10
b0 C
1W
1X
#1190000
1!
1G
b1 x!
#1191000
1Y
b1000 w!
0u!
b1000 y!
0j!
06
11
08
0;
#1200000
0!
0G
#1210000
1!
1G
b1 C
b10 l!
b0 x!
#1211000
0Y
b111 w!
01
#1220000
0!
0G
0/
00
b1100 D
0W
0X
#1230000
1!
1G
b0 l!
b10 x!
#1231000
b110 w!
#1240000
0!
0G
1/
10
b0 C
1W
1X
#1250000
1!
1G
b1 x!
#1251000
1Y
b101 w!
11
#1260000
0!
0G
#1270000
1!
1G
b1 C
b0 x!
#1271000
0Y
b100 w!
01
#1280000
0!
0G
0/
00
b1101 D
0W
0X
#1290000
1!
1G
b10 x!
b110 n!
#1291000
b11 w!
#1300000
0!
0G
1/
10
b0 C
1W
1X
#1310000
1!
1G
b1 x!
#1311000
1Y
b10 w!
11
#1320000
0!
0G
#1330000
1!
1G
b1 C
b0 x!
#1331000
0Y
b1 w!
01
#1340000
0!
0G
0/
00
b1110 D
0W
0X
#1350000
1!
1G
b10 x!
b100 n!
#1351000
b0 w!
#1360000
0!
0G
1/
10
b0 C
1W
1X
#1370000
1!
1G
b1 x!
#1371000
1Y
b1001 w!
1u!
0p!
11
#1380000
0!
0G
#1390000
1!
1G
b1 C
b0 x!
#1391000
0Y
b1000 w!
0u!
0r!
1{!
b10000 y!
01
#1400000
0!
0G
0/
00
b1111 D
0W
0X
#1410000
1!
1G
b10 x!
b0 n!
#1411000
b111 w!
0{!
1e!
1v
1h
#1420000
0!
0G
1/
10
b0 C
1W
1X
#1430000
1!
1G
b1 x!
#1431000
1Y
b1000010 U
b110 w!
1'
11
#1440000
0!
0G
#1450000
1!
1G
b1 C
b1000010 B
b0 x!
#1451000
0Y
b101 w!
01
#1460000
0!
0G
0/
00
b1000010 E
b10000 D
0W
0X
#1470000
1!
1G
b10 x!
#1471000
b100 w!
#1480000
0!
0G
1/
10
b0 C
1W
1X
#1490000
1!
1G
b1 x!
#1491000
1Y
b11 w!
11
#1500000
0!
0G
#1510000
1!
1G
b1 C
b0 x!
#1511000
0Y
b10 w!
01
#1520000
0!
0G
0/
00
b10001 D
0W
0X
#1530000
1!
1G
b10 x!
#1531000
b1 w!
#1540000
0!
0G
1/
10
b0 C
1W
1X
#1550000
1!
1G
b1 x!
#1551000
1Y
b0 w!
11
#1560000
0!
0G
#1570000
1!
1G
b1 C
b0 x!
#1571000
0Y
b1001 w!
1u!
01
#1580000
0!
0G
0/
00
b10010 D
0W
0X
#1590000
1!
1G
b10 x!
#1591000
b1000 w!
0u!
b0 y!
1d!
0i!
1E!
04
07
0:
#1600000
0!
0G
1/
10
b0 C
1W
1X
#1610000
1!
1G
b10 k!
b1 x!
#1611000
1Y
0s!
b111 w!
0d!
b100 M!
b100 C!
1I!
0E!
0c!
1a!
11
#1620000
0!
0G
#1630000
1!
1G
b1 C
b0 k!
b0 x!
#1631000
0Y
b110 w!
0I!
01
#1640000
0!
0G
0/
00
b10011 D
0W
0X
#1650000
1!
1G
b10 x!
b110 m!
#1651000
b101 w!
#1660000
0!
0G
1/
10
b0 C
1W
1X
#1670000
1!
1G
b1 x!
#1671000
1Y
b100 w!
11
#1680000
0!
0G
#1690000
1!
1G
b1 C
b0 x!
#1691000
0Y
b11 w!
01
#1700000
0!
0G
0/
00
b10100 D
0W
0X
#1710000
1!
1G
b10 x!
b100 m!
#1711000
b10 w!
#1720000
0!
0G
1/
10
b0 C
1W
1X
#1730000
1!
1G
b1 x!
#1731000
1Y
b1 w!
0o!
11
#1740000
0!
0G
#1750000
1!
1G
b1 C
b0 x!
#1751000
0Y
b0 w!
0q!
01
#1760000
0!
0G
0/
00
b10101 D
0W
0X
#1770000
1!
1G
b10 x!
b0 m!
#1771000
b1001 w!
1u!
#1780000
0!
0G
1/
10
b0 C
1W
1X
#1790000
1!
1G
b1 x!
#1791000
1Y
b1000 w!
0u!
b10000000000000 y!
11
#1800000
0!
0G
#1810000
1!
1G
b1 C
b0 x!
#1811000
0Y
b111 w!
01
#1820000
0!
0G
0/
00
b10110 D
0W
0X
#1830000
1!
1G
b10 x!
#1831000
b110 w!
#1840000
0!
0G
1/
10
b0 C
1W
1X
#1850000
1!
1G
b1 x!
#1851000
1Y
b101 w!
11
#1860000
0!
0G
#1870000
1!
1G
b1 C
b0 x!
#1871000
0Y
b100 w!
01
#1880000
0!
0G
0/
00
b10111 D
0W
0X
#1890000
1!
1G
b10 x!
#1891000
b11 w!
#1900000
0!
0G
1/
10
b0 C
1W
1X
#1910000
1!
1G
b1 x!
#1911000
1Y
b10 w!
11
#1920000
0!
0G
#1930000
1!
1G
b1 C
b0 x!
#1931000
0Y
b1 w!
01
#1940000
0!
0G
0/
00
b11000 D
0W
0X
#1950000
1!
1G
b10 x!
#1951000
b0 w!
#1960000
0!
0G
1/
10
b0 C
1W
1X
#1970000
1!
1G
b1 x!
#1971000
1Y
b1001 w!
1u!
11
#1980000
0!
0G
#1990000
1!
1G
b1 C
b0 x!
#1991000
0Y
b1000 w!
0u!
b100000000000000 y!
1j!
16
01
18
1;
#2000000
0!
0G
0/
00
b11001 D
0W
0X
#2010000
1!
1G
b1 l!
b10 x!
#2011000
b111 w!
#2020000
0!
0G
1/
10
b0 C
1W
1X
#2030000
1!
1G
b11 l!
b1 x!
#2031000
1Y
b110 w!
11
#2040000
0!
0G
#2050000
1!
1G
b1 C
b0 x!
#2051000
0Y
b101 w!
01
#2060000
0!
0G
0/
00
b11010 D
0W
0X
#2070000
1!
1G
b10 x!
b1 n!
#2071000
b100 w!
#2080000
0!
0G
1/
10
b0 C
1W
1X
#2090000
1!
1G
b1 x!
#2091000
1Y
b11 w!
11
#2100000
0!
0G
#2110000
1!
1G
b1 C
b0 x!
#2111000
0Y
b10 w!
01
#2120000
0!
0G
0/
00
b11011 D
0W
0X
#2130000
1!
1G
b10 x!
b11 n!
#2131000
b1 w!
#2140000
0!
0G
1/
10
b0 C
1W
1X
#2150000
1!
1G
b1 x!
#2151000
1Y
b0 w!
1p!
11
#2160000
0!
0G
#2170000
1!
1G
b1 C
b0 x!
#2171000
0Y
b1001 w!
1u!
1r!
01
#2180000
0!
0G
0/
00
b11100 D
0W
0X
#2190000
1!
1G
b10 x!
b111 n!
#2191000
b1000 w!
0u!
b1000000000000000 y!
1i!
14
17
1:
b10 <
#2200000
0!
0G
1/
10
b0 C
1W
1X
#2210000
1!
1G
1v!
b1 k!
b1 x!
#2211000
1Y
1s!
b111 w!
11
#2220000
0!
0G
#2230000
1!
1G
b1 C
b11 k!
b0 x!
#2231000
0Y
01
#2240000
0!
0G
0/
00
b11101 D
0W
0X
#2250000
1!
1G
b10 x!
b1 m!
#2260000
0!
0G
1/
10
b0 C
1W
1X
#2270000
1!
1G
b1 x!
#2271000
1Y
11
#2280000
0!
0G
#2290000
1!
1G
b1 C
b0 x!
#2291000
0Y
01
#2300000
0!
0G
0/
00
b11110 D
0W
0X
#2310000
1!
1G
b10 x!
b11 m!
#2320000
0!
0G
1/
10
b0 C
1W
1X
#2330000
1!
1G
b1 x!
#2331000
1Y
1o!
11
#2340000
0!
0G
#2350000
1!
1G
b1 C
0v!
b0 x!
#2351000
0Y
1q!
01
#2360000
0!
0G
0/
00
b11111 D
0W
0X
#2370000
1!
1G
b10 x!
b111 m!
#2371000
b110 w!
#2380000
0!
0G
1/
10
b0 C
1W
1X
#2390000
1!
1G
b1 x!
#2391000
1Y
b101 w!
11
#2400000
0!
0G
#2410000
1!
1G
b1 C
b0 x!
#2411000
0Y
b100 w!
01
#2420000
0!
0G
0/
00
b100000 D
0W
0X
#2430000
1!
1G
b10 x!
#2431000
b11 w!
#2440000
0!
0G
1/
10
b0 C
1W
1X
#2450000
1!
1G
b1 x!
#2451000
1Y
b10 w!
11
#2460000
0!
0G
#2470000
1!
1G
b1 C
b0 x!
#2471000
0Y
b1 w!
01
#2480000
0!
0G
0/
00
b100001 D
0W
0X
#2490000
1!
1G
b10 x!
#2491000
b0 w!
#2500000
0!
0G
1/
10
b0 C
1W
1X
#2510000
1!
1G
b1 x!
#2511000
1Y
b1001 w!
1u!
11
#2520000
0!
0G
#2530000
1!
1G
b1 C
b0 x!
#2531000
0Y
b1000 w!
0u!
b10000000000000000 y!
1t!
01
#2540000
0!
0G
0/
00
b100010 D
0W
0X
#2550000
1!
1G
b10 x!
#2551000
b111 w!
#2560000
0!
0G
1/
10
b0 C
1W
1X
#2570000
1!
1G
b1 x!
#2571000
1Y
b110 w!
11
#2580000
0!
0G
#2590000
1!
1G
b1 C
b0 x!
#2591000
0Y
b101 w!
01
#2600000
0!
0G
0/
00
b100011 D
0W
0X
#2610000
1!
1G
b10 x!
#2611000
b100 w!
#2620000
0!
0G
1/
10
b0 C
1W
1X
#2630000
1!
1G
b1 x!
#2631000
1Y
b11 w!
11
#2640000
0!
0G
#2650000
1!
1G
b1 C
b0 x!
#2651000
0Y
b10 w!
01
#2660000
0!
0G
0/
00
b100100 D
0W
0X
#2670000
1!
1G
b10 x!
#2671000
b1 w!
#2680000
0!
0G
1/
10
b0 C
1W
1X
#2690000
1!
1G
b1 x!
#2691000
1Y
b0 w!
11
#2700000
0!
0G
#2710000
1!
1G
b1 C
b0 x!
#2711000
0Y
b1001 w!
1u!
01
#2720000
0!
0G
0/
00
b100101 D
0W
0X
#2730000
1!
1G
b10 x!
#2731000
b1000 w!
0u!
b0 y!
1d!
0i!
0t!
1E!
04
07
0:
#2740000
0!
0G
1/
10
b0 C
1W
1X
#2750000
1!
1G
b10 k!
b1 x!
#2751000
1Y
0s!
b111 w!
0d!
1H!
0E!
11
#2760000
0!
0G
#2770000
1!
1G
b1 C
b0 k!
b0 x!
#2771000
0Y
b110 w!
b1000001 G!
b110 K!
0H!
1e
0`
1_
0^
01
#2780000
0!
0G
0/
00
b100110 D
0W
0X
#2790000
1!
1G
b10 x!
b110 m!
#2791000
b101 w!
0D!
0g!
#2800000
0!
0G
1/
10
b0 C
1W
1X
#2810000
1!
1G
b1 x!
#2811000
1Y
b100 w!
11
#2820000
0!
0G
#2830000
1!
1G
b1 C
b0 x!
#2831000
0Y
b11 w!
01
#2840000
0!
0G
0/
00
b100111 D
0W
0X
#2850000
1!
1G
b10 x!
b100 m!
#2851000
b10 w!
#2860000
0!
0G
1/
10
b0 C
1W
1X
#2870000
1!
1G
b1 x!
#2871000
1Y
b1 w!
0o!
11
#2880000
0!
0G
#2890000
1!
1G
b1 C
b0 x!
#2891000
0Y
b0 w!
0q!
01
#2900000
0!
0G
0/
00
b101000 D
0W
0X
#2910000
1!
1G
b10 x!
b0 m!
#2911000
b1001 w!
1u!
#2920000
0!
0G
1/
10
b0 C
1W
1X
#2930000
1!
1G
b1 x!
#2931000
1Y
b1000 w!
0u!
b10000000000000 y!
11
#2940000
0!
0G
#2950000
1!
1G
b1 C
b0 x!
#2951000
0Y
b111 w!
01
#2960000
0!
0G
0/
00
b101001 D
0W
0X
#2970000
1!
1G
b10 x!
#2971000
b110 w!
#2980000
0!
0G
1/
10
b0 C
1W
1X
#2990000
1!
1G
b1 x!
#2991000
1Y
b101 w!
11
#3000000
0!
0G
#3010000
1!
1G
b1 C
b0 x!
#3011000
0Y
b100 w!
01
#3020000
0!
0G
0/
00
b101010 D
0W
0X
#3030000
1!
1G
b10 x!
#3031000
b11 w!
